\relax 
\newlabel{m1_eqn}{{1}{1}}
\newlabel{m2_eqn}{{2}{1}}
\newlabel{m3_eqn}{{3}{1}}
\newlabel{eq4}{{4}{2}}
\newlabel{eq5}{{5}{2}}
\newlabel{eq6}{{6}{2}}
\newlabel{eq7}{{7}{2}}
\@writefile{lof}{\contentsline {figure}{\numberline {1}{\ignorespaces Steady state response for mass 1 where $F_0 = 1$ N and $\omega = 2 \pi 10 $ rad/s}}{3}}
\newlabel{fig:1}{{1}{3}}
\@writefile{lof}{\contentsline {figure}{\numberline {2}{\ignorespaces Steady state response for mass 2 where $F_0 = 1$ N and $\omega = 2 \pi 10 $ rad/s}}{3}}
\newlabel{fig:2}{{2}{3}}
\@writefile{lof}{\contentsline {figure}{\numberline {3}{\ignorespaces Steady state response for mass 3 where $F_0 = 1$ N and $\omega = 2 \pi 10 $ rad/s}}{4}}
\newlabel{fig:3}{{3}{4}}
\@writefile{lof}{\contentsline {figure}{\numberline {4}{\ignorespaces Mass 1 amplitude of vibration for varying frequencies}}{4}}
\newlabel{fig:4}{{4}{4}}
\@writefile{lof}{\contentsline {figure}{\numberline {5}{\ignorespaces Mass 2 amplitude of vibration for varying frequencies}}{5}}
\newlabel{fig:5}{{5}{5}}
\@writefile{lof}{\contentsline {figure}{\numberline {6}{\ignorespaces Mass 3 amplitude of vibration for varying frequencies}}{5}}
\newlabel{fig:6}{{6}{5}}
\@writefile{lof}{\contentsline {figure}{\numberline {7}{\ignorespaces Real value of impedance versus frequency.}}{6}}
\newlabel{fig:7}{{7}{6}}
\@writefile{lof}{\contentsline {figure}{\numberline {8}{\ignorespaces Imaginary value of impedance versus frequency.}}{6}}
\newlabel{fig:8}{{8}{6}}
