%!PS-Adobe-3.0 EPSF-3.0
%%Creator: (MATLAB, The Mathworks, Inc. Version 8.5.0.197613 \(R2015a\). Operating System: Windows 8)
%%Title: ./steadystate_mass1_plot.eps
%%CreationDate: 2017-03-12T23:59:55
%%Pages: (atend)
%%BoundingBox: (atend)
%%LanguageLevel: 3
%%EndComments
%%BeginProlog
%%BeginResource: procset (Apache XML Graphics Std ProcSet) 1.2 0
%%Version: 1.2 0
%%Copyright: (Copyright 2001-2003,2010 The Apache Software Foundation. License terms: http://www.apache.org/licenses/LICENSE-2.0)
/bd{bind def}bind def
/ld{load def}bd
/GR/grestore ld
/M/moveto ld
/LJ/setlinejoin ld
/C/curveto ld
/f/fill ld
/LW/setlinewidth ld
/GC/setgray ld
/t/show ld
/N/newpath ld
/CT/concat ld
/cp/closepath ld
/S/stroke ld
/L/lineto ld
/CC/setcmykcolor ld
/A/ashow ld
/GS/gsave ld
/RC/setrgbcolor ld
/RM/rmoveto ld
/ML/setmiterlimit ld
/re {4 2 roll M
1 index 0 rlineto
0 exch rlineto
neg 0 rlineto
cp } bd
/_ctm matrix def
/_tm matrix def
/BT { _ctm currentmatrix pop matrix _tm copy pop 0 0 moveto } bd
/ET { _ctm setmatrix } bd
/iTm { _ctm setmatrix _tm concat } bd
/Tm { _tm astore pop iTm 0 0 moveto } bd
/ux 0.0 def
/uy 0.0 def
/F {
  /Tp exch def
  /Tf exch def
  Tf findfont Tp scalefont setfont
  /cf Tf def  /cs Tp def
} bd
/ULS {currentpoint /uy exch def /ux exch def} bd
/ULE {
  /Tcx currentpoint pop def
  gsave
  newpath
  cf findfont cs scalefont dup
  /FontMatrix get 0 get /Ts exch def /FontInfo get dup
  /UnderlinePosition get Ts mul /To exch def
  /UnderlineThickness get Ts mul /Tt exch def
  ux uy To add moveto  Tcx uy To add lineto
  Tt setlinewidth stroke
  grestore
} bd
/OLE {
  /Tcx currentpoint pop def
  gsave
  newpath
  cf findfont cs scalefont dup
  /FontMatrix get 0 get /Ts exch def /FontInfo get dup
  /UnderlinePosition get Ts mul /To exch def
  /UnderlineThickness get Ts mul /Tt exch def
  ux uy To add cs add moveto Tcx uy To add cs add lineto
  Tt setlinewidth stroke
  grestore
} bd
/SOE {
  /Tcx currentpoint pop def
  gsave
  newpath
  cf findfont cs scalefont dup
  /FontMatrix get 0 get /Ts exch def /FontInfo get dup
  /UnderlinePosition get Ts mul /To exch def
  /UnderlineThickness get Ts mul /Tt exch def
  ux uy To add cs 10 mul 26 idiv add moveto Tcx uy To add cs 10 mul 26 idiv add lineto
  Tt setlinewidth stroke
  grestore
} bd
/QT {
/Y22 exch store
/X22 exch store
/Y21 exch store
/X21 exch store
currentpoint
/Y21 load 2 mul add 3 div exch
/X21 load 2 mul add 3 div exch
/X21 load 2 mul /X22 load add 3 div
/Y21 load 2 mul /Y22 load add 3 div
/X22 load /Y22 load curveto
} bd
/SSPD {
dup length /d exch dict def
{
/v exch def
/k exch def
currentpagedevice k known {
/cpdv currentpagedevice k get def
v cpdv ne {
/upd false def
/nullv v type /nulltype eq def
/nullcpdv cpdv type /nulltype eq def
nullv nullcpdv or
{
/upd true def
} {
/sametype v type cpdv type eq def
sametype {
v type /arraytype eq {
/vlen v length def
/cpdvlen cpdv length def
vlen cpdvlen eq {
0 1 vlen 1 sub {
/i exch def
/obj v i get def
/cpdobj cpdv i get def
obj cpdobj ne {
/upd true def
exit
} if
} for
} {
/upd true def
} ifelse
} {
v type /dicttype eq {
v {
/dv exch def
/dk exch def
/cpddv cpdv dk get def
dv cpddv ne {
/upd true def
exit
} if
} forall
} {
/upd true def
} ifelse
} ifelse
} if
} ifelse
upd true eq {
d k v put
} if
} if
} if
} forall
d length 0 gt {
d setpagedevice
} if
} bd
%%EndResource
%%BeginResource: procset (Apache XML Graphics EPS ProcSet) 1.0 0
%%Version: 1.0 0
%%Copyright: (Copyright 2002-2003 The Apache Software Foundation. License terms: http://www.apache.org/licenses/LICENSE-2.0)
/BeginEPSF { %def
/b4_Inc_state save def         % Save state for cleanup
/dict_count countdictstack def % Count objects on dict stack
/op_count count 1 sub def      % Count objects on operand stack
userdict begin                 % Push userdict on dict stack
/showpage { } def              % Redefine showpage, { } = null proc
0 setgray 0 setlinecap         % Prepare graphics state
1 setlinewidth 0 setlinejoin
10 setmiterlimit [ ] 0 setdash newpath
/languagelevel where           % If level not equal to 1 then
{pop languagelevel             % set strokeadjust and
1 ne                           % overprint to their defaults.
{false setstrokeadjust false setoverprint
} if
} if
} bd
/EndEPSF { %def
count op_count sub {pop} repeat            % Clean up stacks
countdictstack dict_count sub {end} repeat
b4_Inc_state restore
} bd
%%EndResource
%FOPBeginFontDict
%%IncludeResource: font Courier-Bold
%%IncludeResource: font Helvetica
%%IncludeResource: font Courier-BoldOblique
%%IncludeResource: font Courier-Oblique
%%IncludeResource: font Times-Roman
%%IncludeResource: font Helvetica-BoldOblique
%%IncludeResource: font Helvetica-Bold
%%IncludeResource: font Helvetica-Oblique
%%IncludeResource: font Times-BoldItalic
%%IncludeResource: font Courier
%%IncludeResource: font Times-Italic
%%IncludeResource: font Times-Bold
%%IncludeResource: font Symbol
%%IncludeResource: font ZapfDingbats
%FOPEndFontDict
%%BeginResource: encoding WinAnsiEncoding
/WinAnsiEncoding [
/.notdef /.notdef /.notdef /.notdef /.notdef
/.notdef /.notdef /.notdef /.notdef /.notdef
/.notdef /.notdef /.notdef /.notdef /.notdef
/.notdef /.notdef /.notdef /.notdef /.notdef
/.notdef /.notdef /.notdef /.notdef /.notdef
/.notdef /.notdef /.notdef /.notdef /.notdef
/.notdef /.notdef /space /exclam /quotedbl
/numbersign /dollar /percent /ampersand /quotesingle
/parenleft /parenright /asterisk /plus /comma
/hyphen /period /slash /zero /one
/two /three /four /five /six
/seven /eight /nine /colon /semicolon
/less /equal /greater /question /at
/A /B /C /D /E
/F /G /H /I /J
/K /L /M /N /O
/P /Q /R /S /T
/U /V /W /X /Y
/Z /bracketleft /backslash /bracketright /asciicircum
/underscore /quoteleft /a /b /c
/d /e /f /g /h
/i /j /k /l /m
/n /o /p /q /r
/s /t /u /v /w
/x /y /z /braceleft /bar
/braceright /asciitilde /bullet /Euro /bullet
/quotesinglbase /florin /quotedblbase /ellipsis /dagger
/daggerdbl /circumflex /perthousand /Scaron /guilsinglleft
/OE /bullet /Zcaron /bullet /bullet
/quoteleft /quoteright /quotedblleft /quotedblright /bullet
/endash /emdash /asciitilde /trademark /scaron
/guilsinglright /oe /bullet /zcaron /Ydieresis
/space /exclamdown /cent /sterling /currency
/yen /brokenbar /section /dieresis /copyright
/ordfeminine /guillemotleft /logicalnot /sfthyphen /registered
/macron /degree /plusminus /twosuperior /threesuperior
/acute /mu /paragraph /middot /cedilla
/onesuperior /ordmasculine /guillemotright /onequarter /onehalf
/threequarters /questiondown /Agrave /Aacute /Acircumflex
/Atilde /Adieresis /Aring /AE /Ccedilla
/Egrave /Eacute /Ecircumflex /Edieresis /Igrave
/Iacute /Icircumflex /Idieresis /Eth /Ntilde
/Ograve /Oacute /Ocircumflex /Otilde /Odieresis
/multiply /Oslash /Ugrave /Uacute /Ucircumflex
/Udieresis /Yacute /Thorn /germandbls /agrave
/aacute /acircumflex /atilde /adieresis /aring
/ae /ccedilla /egrave /eacute /ecircumflex
/edieresis /igrave /iacute /icircumflex /idieresis
/eth /ntilde /ograve /oacute /ocircumflex
/otilde /odieresis /divide /oslash /ugrave
/uacute /ucircumflex /udieresis /yacute /thorn
/ydieresis
] def
%%EndResource
%FOPBeginFontReencode
/Courier-Bold findfont
dup length dict begin
  {1 index /FID ne {def} {pop pop} ifelse} forall
  /Encoding WinAnsiEncoding def
  currentdict
end
/Courier-Bold exch definefont pop
/Helvetica findfont
dup length dict begin
  {1 index /FID ne {def} {pop pop} ifelse} forall
  /Encoding WinAnsiEncoding def
  currentdict
end
/Helvetica exch definefont pop
/Courier-BoldOblique findfont
dup length dict begin
  {1 index /FID ne {def} {pop pop} ifelse} forall
  /Encoding WinAnsiEncoding def
  currentdict
end
/Courier-BoldOblique exch definefont pop
/Courier-Oblique findfont
dup length dict begin
  {1 index /FID ne {def} {pop pop} ifelse} forall
  /Encoding WinAnsiEncoding def
  currentdict
end
/Courier-Oblique exch definefont pop
/Times-Roman findfont
dup length dict begin
  {1 index /FID ne {def} {pop pop} ifelse} forall
  /Encoding WinAnsiEncoding def
  currentdict
end
/Times-Roman exch definefont pop
/Helvetica-BoldOblique findfont
dup length dict begin
  {1 index /FID ne {def} {pop pop} ifelse} forall
  /Encoding WinAnsiEncoding def
  currentdict
end
/Helvetica-BoldOblique exch definefont pop
/Helvetica-Bold findfont
dup length dict begin
  {1 index /FID ne {def} {pop pop} ifelse} forall
  /Encoding WinAnsiEncoding def
  currentdict
end
/Helvetica-Bold exch definefont pop
/Helvetica-Oblique findfont
dup length dict begin
  {1 index /FID ne {def} {pop pop} ifelse} forall
  /Encoding WinAnsiEncoding def
  currentdict
end
/Helvetica-Oblique exch definefont pop
/Times-BoldItalic findfont
dup length dict begin
  {1 index /FID ne {def} {pop pop} ifelse} forall
  /Encoding WinAnsiEncoding def
  currentdict
end
/Times-BoldItalic exch definefont pop
/Courier findfont
dup length dict begin
  {1 index /FID ne {def} {pop pop} ifelse} forall
  /Encoding WinAnsiEncoding def
  currentdict
end
/Courier exch definefont pop
/Times-Italic findfont
dup length dict begin
  {1 index /FID ne {def} {pop pop} ifelse} forall
  /Encoding WinAnsiEncoding def
  currentdict
end
/Times-Italic exch definefont pop
/Times-Bold findfont
dup length dict begin
  {1 index /FID ne {def} {pop pop} ifelse} forall
  /Encoding WinAnsiEncoding def
  currentdict
end
/Times-Bold exch definefont pop
%FOPEndFontReencode
%%EndProlog
%%Page: 1 1
%%PageBoundingBox: 0 0 576 432
%%BeginPageSetup
[1 0 0 -1 0 432] CT
%%EndPageSetup
GS
[0.75 0 0 0.75 0 0] CT
1 GC
N
0 0 768 576 re
f
GR
GS
[0.75 0 0 0.75 0 0] CT
1 GC
N
0 0 768 576 re
f
GR
GS
[0.75 0 0 0.75 0 0] CT
1 GC
N
100 513 M
695 513 L
695 43 L
100 43 L
cp
f
GR
GS
[0.75 0 0 0.75 298.12521 402.50002] CT
0.149 GC
/Helvetica 15 F
GS
[1 0 0 1 0 0] CT
-27.5 16 moveto 
1 -1 scale
(Time \(s\)) t 
GR
GR
GS
[0.75 0 0 0.75 0 0] CT
0.149 GC
2 setlinecap
10.0 ML
N
100 513 M
695 513 L
S
GR
GS
[0.75 0 0 0.75 0 0] CT
0.149 GC
2 setlinecap
10.0 ML
N
100 43 M
695 43 L
S
GR
GS
[0.75 0 0 0.75 0 0] CT
0.149 GC
2 setlinecap
10.0 ML
N
100 513 M
100 507.05 L
S
GR
GS
[0.75 0 0 0.75 0 0] CT
0.149 GC
2 setlinecap
10.0 ML
N
159.5 513 M
159.5 507.05 L
S
GR
GS
[0.75 0 0 0.75 0 0] CT
0.149 GC
2 setlinecap
10.0 ML
N
219 513 M
219 507.05 L
S
GR
GS
[0.75 0 0 0.75 0 0] CT
0.149 GC
2 setlinecap
10.0 ML
N
278.5 513 M
278.5 507.05 L
S
GR
GS
[0.75 0 0 0.75 0 0] CT
0.149 GC
2 setlinecap
10.0 ML
N
338 513 M
338 507.05 L
S
GR
GS
[0.75 0 0 0.75 0 0] CT
0.149 GC
2 setlinecap
10.0 ML
N
397.5 513 M
397.5 507.05 L
S
GR
GS
[0.75 0 0 0.75 0 0] CT
0.149 GC
2 setlinecap
10.0 ML
N
457 513 M
457 507.05 L
S
GR
GS
[0.75 0 0 0.75 0 0] CT
0.149 GC
2 setlinecap
10.0 ML
N
516.5 513 M
516.5 507.05 L
S
GR
GS
[0.75 0 0 0.75 0 0] CT
0.149 GC
2 setlinecap
10.0 ML
N
576 513 M
576 507.05 L
S
GR
GS
[0.75 0 0 0.75 0 0] CT
0.149 GC
2 setlinecap
10.0 ML
N
635.5 513 M
635.5 507.05 L
S
GR
GS
[0.75 0 0 0.75 0 0] CT
0.149 GC
2 setlinecap
10.0 ML
N
695 513 M
695 507.05 L
S
GR
GS
[0.75 0 0 0.75 0 0] CT
0.149 GC
2 setlinecap
10.0 ML
N
100 43 M
100 48.95 L
S
GR
GS
[0.75 0 0 0.75 0 0] CT
0.149 GC
2 setlinecap
10.0 ML
N
159.5 43 M
159.5 48.95 L
S
GR
GS
[0.75 0 0 0.75 0 0] CT
0.149 GC
2 setlinecap
10.0 ML
N
219 43 M
219 48.95 L
S
GR
GS
[0.75 0 0 0.75 0 0] CT
0.149 GC
2 setlinecap
10.0 ML
N
278.5 43 M
278.5 48.95 L
S
GR
GS
[0.75 0 0 0.75 0 0] CT
0.149 GC
2 setlinecap
10.0 ML
N
338 43 M
338 48.95 L
S
GR
GS
[0.75 0 0 0.75 0 0] CT
0.149 GC
2 setlinecap
10.0 ML
N
397.5 43 M
397.5 48.95 L
S
GR
GS
[0.75 0 0 0.75 0 0] CT
0.149 GC
2 setlinecap
10.0 ML
N
457 43 M
457 48.95 L
S
GR
GS
[0.75 0 0 0.75 0 0] CT
0.149 GC
2 setlinecap
10.0 ML
N
516.5 43 M
516.5 48.95 L
S
GR
GS
[0.75 0 0 0.75 0 0] CT
0.149 GC
2 setlinecap
10.0 ML
N
576 43 M
576 48.95 L
S
GR
GS
[0.75 0 0 0.75 0 0] CT
0.149 GC
2 setlinecap
10.0 ML
N
635.5 43 M
635.5 48.95 L
S
GR
GS
[0.75 0 0 0.75 0 0] CT
0.149 GC
2 setlinecap
10.0 ML
N
695 43 M
695 48.95 L
S
GR
GS
[0.75 0 0 0.75 75 388.75003] CT
0.149 GC
/Helvetica 13 F
GS
[1 0 0 1 0 0] CT
-4 14 moveto 
1 -1 scale
(0) t 
GR
GR
GS
[0.75 0 0 0.75 119.625 388.75003] CT
0.149 GC
/Helvetica 13 F
GS
[1 0 0 1 0 0] CT
-9.5 14 moveto 
1 -1 scale
(0.2) t 
GR
GR
GS
[0.75 0 0 0.75 164.25 388.75003] CT
0.149 GC
/Helvetica 13 F
GS
[1 0 0 1 0 0] CT
-9.5 14 moveto 
1 -1 scale
(0.4) t 
GR
GR
GS
[0.75 0 0 0.75 208.875 388.75003] CT
0.149 GC
/Helvetica 13 F
GS
[1 0 0 1 0 0] CT
-9.5 14 moveto 
1 -1 scale
(0.6) t 
GR
GR
GS
[0.75 0 0 0.75 253.5 388.75003] CT
0.149 GC
/Helvetica 13 F
GS
[1 0 0 1 0 0] CT
-9.5 14 moveto 
1 -1 scale
(0.8) t 
GR
GR
GS
[0.75 0 0 0.75 298.125 388.75003] CT
0.149 GC
/Helvetica 13 F
GS
[1 0 0 1 0 0] CT
-4 14 moveto 
1 -1 scale
(1) t 
GR
GR
GS
[0.75 0 0 0.75 342.75 388.75003] CT
0.149 GC
/Helvetica 13 F
GS
[1 0 0 1 0 0] CT
-9.5 14 moveto 
1 -1 scale
(1.2) t 
GR
GR
GS
[0.75 0 0 0.75 387.375 388.75003] CT
0.149 GC
/Helvetica 13 F
GS
[1 0 0 1 0 0] CT
-9.5 14 moveto 
1 -1 scale
(1.4) t 
GR
GR
GS
[0.75 0 0 0.75 432 388.75003] CT
0.149 GC
/Helvetica 13 F
GS
[1 0 0 1 0 0] CT
-9.5 14 moveto 
1 -1 scale
(1.6) t 
GR
GR
GS
[0.75 0 0 0.75 476.625 388.75003] CT
0.149 GC
/Helvetica 13 F
GS
[1 0 0 1 0 0] CT
-9.5 14 moveto 
1 -1 scale
(1.8) t 
GR
GR
GS
[0.75 0 0 0.75 521.25 388.75003] CT
0.149 GC
/Helvetica 13 F
GS
[1 0 0 1 0 0] CT
-4 14 moveto 
1 -1 scale
(2) t 
GR
GR
GS
[0 -0.75 0.75 0 40.25 208.49984] CT
0.149 GC
/Helvetica 15 F
GS
[1 0 0 1 0 0] CT
-59 -4 moveto 
1 -1 scale
(Displacement \(m\)) t 
GR
GR
GS
[0.75 0 0 0.75 0 0] CT
0.149 GC
2 setlinecap
10.0 ML
N
100 513 M
100 43 L
S
GR
GS
[0.75 0 0 0.75 0 0] CT
0.149 GC
2 setlinecap
10.0 ML
N
695 513 M
695 43 L
S
GR
GS
[0.75 0 0 0.75 0 0] CT
0.149 GC
2 setlinecap
10.0 ML
N
100 513 M
105.95 513 L
S
GR
GS
[0.75 0 0 0.75 0 0] CT
0.149 GC
2 setlinecap
10.0 ML
N
100 466 M
105.95 466 L
S
GR
GS
[0.75 0 0 0.75 0 0] CT
0.149 GC
2 setlinecap
10.0 ML
N
100 419 M
105.95 419 L
S
GR
GS
[0.75 0 0 0.75 0 0] CT
0.149 GC
2 setlinecap
10.0 ML
N
100 372 M
105.95 372 L
S
GR
GS
[0.75 0 0 0.75 0 0] CT
0.149 GC
2 setlinecap
10.0 ML
N
100 325 M
105.95 325 L
S
GR
GS
[0.75 0 0 0.75 0 0] CT
0.149 GC
2 setlinecap
10.0 ML
N
100 278 M
105.95 278 L
S
GR
GS
[0.75 0 0 0.75 0 0] CT
0.149 GC
2 setlinecap
10.0 ML
N
100 231 M
105.95 231 L
S
GR
GS
[0.75 0 0 0.75 0 0] CT
0.149 GC
2 setlinecap
10.0 ML
N
100 184 M
105.95 184 L
S
GR
GS
[0.75 0 0 0.75 0 0] CT
0.149 GC
2 setlinecap
10.0 ML
N
100 137 M
105.95 137 L
S
GR
GS
[0.75 0 0 0.75 0 0] CT
0.149 GC
2 setlinecap
10.0 ML
N
100 90 M
105.95 90 L
S
GR
GS
[0.75 0 0 0.75 0 0] CT
0.149 GC
2 setlinecap
10.0 ML
N
100 43 M
105.95 43 L
S
GR
GS
[0.75 0 0 0.75 0 0] CT
0.149 GC
2 setlinecap
10.0 ML
N
695 513 M
689.05 513 L
S
GR
GS
[0.75 0 0 0.75 0 0] CT
0.149 GC
2 setlinecap
10.0 ML
N
695 466 M
689.05 466 L
S
GR
GS
[0.75 0 0 0.75 0 0] CT
0.149 GC
2 setlinecap
10.0 ML
N
695 419 M
689.05 419 L
S
GR
GS
[0.75 0 0 0.75 0 0] CT
0.149 GC
2 setlinecap
10.0 ML
N
695 372 M
689.05 372 L
S
GR
GS
[0.75 0 0 0.75 0 0] CT
0.149 GC
2 setlinecap
10.0 ML
N
695 325 M
689.05 325 L
S
GR
GS
[0.75 0 0 0.75 0 0] CT
0.149 GC
2 setlinecap
10.0 ML
N
695 278 M
689.05 278 L
S
GR
GS
[0.75 0 0 0.75 0 0] CT
0.149 GC
2 setlinecap
10.0 ML
N
695 231 M
689.05 231 L
S
GR
GS
[0.75 0 0 0.75 0 0] CT
0.149 GC
2 setlinecap
10.0 ML
N
695 184 M
689.05 184 L
S
GR
GS
[0.75 0 0 0.75 0 0] CT
0.149 GC
2 setlinecap
10.0 ML
N
695 137 M
689.05 137 L
S
GR
GS
[0.75 0 0 0.75 0 0] CT
0.149 GC
2 setlinecap
10.0 ML
N
695 90 M
689.05 90 L
S
GR
GS
[0.75 0 0 0.75 0 0] CT
0.149 GC
2 setlinecap
10.0 ML
N
695 43 M
689.05 43 L
S
GR
GS
[0.75 0 0 0.75 71 384.75] CT
0.149 GC
/Helvetica 13 F
GS
[1 0 0 1 0 0] CT
-37 5.5 moveto 
1 -1 scale
(-0.025) t 
GR
GR
GS
[0.75 0 0 0.75 71 349.5] CT
0.149 GC
/Helvetica 13 F
GS
[1 0 0 1 0 0] CT
-30 5.5 moveto 
1 -1 scale
(-0.02) t 
GR
GR
GS
[0.75 0 0 0.75 71 314.25] CT
0.149 GC
/Helvetica 13 F
GS
[1 0 0 1 0 0] CT
-37 5.5 moveto 
1 -1 scale
(-0.015) t 
GR
GR
GS
[0.75 0 0 0.75 71 279] CT
0.149 GC
/Helvetica 13 F
GS
[1 0 0 1 0 0] CT
-30 5.5 moveto 
1 -1 scale
(-0.01) t 
GR
GR
GS
[0.75 0 0 0.75 71 243.75] CT
0.149 GC
/Helvetica 13 F
GS
[1 0 0 1 0 0] CT
-37 5.5 moveto 
1 -1 scale
(-0.005) t 
GR
GR
GS
[0.75 0 0 0.75 71 208.5] CT
0.149 GC
/Helvetica 13 F
GS
[1 0 0 1 0 0] CT
-8 5.5 moveto 
1 -1 scale
(0) t 
GR
GR
GS
[0.75 0 0 0.75 71 173.25] CT
0.149 GC
/Helvetica 13 F
GS
[1 0 0 1 0 0] CT
-33 5.5 moveto 
1 -1 scale
(0.005) t 
GR
GR
GS
[0.75 0 0 0.75 71 138] CT
0.149 GC
/Helvetica 13 F
GS
[1 0 0 1 0 0] CT
-26 5.5 moveto 
1 -1 scale
(0.01) t 
GR
GR
GS
[0.75 0 0 0.75 71 102.75] CT
0.149 GC
/Helvetica 13 F
GS
[1 0 0 1 0 0] CT
-33 5.5 moveto 
1 -1 scale
(0.015) t 
GR
GR
GS
[0.75 0 0 0.75 71 67.50001] CT
0.149 GC
/Helvetica 13 F
GS
[1 0 0 1 0 0] CT
-26 5.5 moveto 
1 -1 scale
(0.02) t 
GR
GR
GS
[0.75 0 0 0.75 71 32.25] CT
0.149 GC
/Helvetica 13 F
GS
[1 0 0 1 0 0] CT
-33 5.5 moveto 
1 -1 scale
(0.025) t 
GR
GR
GS
[0.75 0 0 0.75 0 0] CT
0 0.447 0.741 RC
2 LJ
N
100 506.969 M
100.298 508.813 L
100.595 509.746 L
100.893 509.764 L
101.19 508.868 L
101.488 507.06 L
101.785 504.349 L
102.082 500.744 L
102.38 496.261 L
102.677 490.916 L
102.975 484.73 L
103.272 477.729 L
103.57 469.939 L
103.868 461.392 L
104.165 452.122 L
104.463 442.164 L
104.76 431.558 L
105.058 420.346 L
105.355 408.572 L
105.652 396.283 L
105.95 383.528 L
106.247 370.355 L
106.545 356.819 L
106.842 342.971 L
107.14 328.867 L
107.438 314.562 L
107.735 300.113 L
108.033 285.576 L
108.33 271.01 L
108.628 256.471 L
108.925 242.017 L
109.223 227.705 L
109.52 213.592 L
109.817 199.733 L
110.115 186.183 L
110.412 172.995 L
110.71 160.221 L
111.007 147.912 L
111.305 136.117 L
111.603 124.882 L
111.9 114.251 L
112.198 104.266 L
112.495 94.967 L
112.793 86.39 L
113.09 78.569 L
113.387 71.536 L
113.685 65.317 L
113.982 59.938 L
114.28 55.419 L
114.577 51.779 L
S
GR
GS
[0.75 0 0 0.75 0 0] CT
0 0.447 0.741 RC
2 LJ
N
114.577 51.779 M
114.875 49.031 L
115.173 47.187 L
115.47 46.254 L
115.768 46.236 L
116.065 47.132 L
116.363 48.94 L
116.66 51.651 L
116.957 55.256 L
117.255 59.739 L
117.552 65.084 L
117.85 71.27 L
118.147 78.271 L
118.445 86.061 L
118.743 94.608 L
119.04 103.878 L
119.338 113.836 L
119.635 124.442 L
119.933 135.654 L
120.23 147.428 L
120.527 159.717 L
120.825 172.472 L
121.122 185.645 L
121.42 199.181 L
121.717 213.029 L
122.015 227.133 L
122.313 241.438 L
122.61 255.887 L
122.908 270.424 L
123.205 284.99 L
123.503 299.529 L
123.8 313.983 L
124.098 328.295 L
124.395 342.408 L
124.692 356.267 L
124.99 369.818 L
125.287 383.005 L
125.585 395.779 L
125.882 408.088 L
126.18 419.883 L
126.478 431.118 L
126.775 441.749 L
127.073 451.734 L
127.37 461.033 L
127.668 469.61 L
127.965 477.431 L
128.262 484.464 L
128.56 490.683 L
128.857 496.062 L
129.155 500.581 L
S
GR
GS
[0.75 0 0 0.75 0 0] CT
0 0.447 0.741 RC
2 LJ
N
129.155 500.581 M
129.452 504.221 L
129.75 506.969 L
130.048 508.813 L
130.345 509.746 L
130.643 509.764 L
130.94 508.868 L
131.238 507.06 L
131.535 504.349 L
131.833 500.744 L
132.13 496.261 L
132.428 490.916 L
132.725 484.73 L
133.023 477.729 L
133.32 469.939 L
133.617 461.392 L
133.915 452.122 L
134.212 442.164 L
134.51 431.558 L
134.807 420.346 L
135.105 408.572 L
135.402 396.283 L
135.7 383.528 L
135.997 370.355 L
136.295 356.819 L
136.592 342.971 L
136.89 328.867 L
137.188 314.562 L
137.485 300.113 L
137.783 285.576 L
138.08 271.01 L
138.378 256.471 L
138.675 242.017 L
138.973 227.705 L
139.27 213.592 L
139.568 199.733 L
139.865 186.183 L
140.163 172.995 L
140.46 160.221 L
140.757 147.912 L
141.055 136.117 L
141.352 124.882 L
141.65 114.251 L
141.947 104.266 L
142.245 94.967 L
142.542 86.39 L
142.84 78.569 L
143.137 71.536 L
143.435 65.317 L
143.732 59.938 L
S
GR
GS
[0.75 0 0 0.75 0 0] CT
0 0.447 0.741 RC
2 LJ
N
143.732 59.938 M
144.03 55.419 L
144.327 51.779 L
144.625 49.031 L
144.923 47.187 L
145.22 46.254 L
145.518 46.236 L
145.815 47.132 L
146.113 48.94 L
146.41 51.651 L
146.708 55.256 L
147.005 59.739 L
147.303 65.084 L
147.6 71.27 L
147.898 78.271 L
148.195 86.061 L
148.493 94.608 L
148.79 103.878 L
149.088 113.836 L
149.385 124.442 L
149.682 135.654 L
149.98 147.428 L
150.277 159.717 L
150.575 172.472 L
150.872 185.645 L
151.17 199.181 L
151.467 213.029 L
151.765 227.133 L
152.063 241.438 L
152.36 255.887 L
152.658 270.424 L
152.955 284.99 L
153.253 299.529 L
153.55 313.983 L
153.848 328.295 L
154.145 342.408 L
154.443 356.267 L
154.74 369.818 L
155.038 383.005 L
155.335 395.779 L
155.633 408.088 L
155.93 419.883 L
156.227 431.118 L
156.525 441.749 L
156.822 451.734 L
157.12 461.033 L
157.417 469.61 L
157.715 477.431 L
158.012 484.464 L
158.31 490.683 L
S
GR
GS
[0.75 0 0 0.75 0 0] CT
0 0.447 0.741 RC
2 LJ
N
158.31 490.683 M
158.607 496.062 L
158.905 500.581 L
159.202 504.221 L
159.5 506.969 L
159.798 508.813 L
160.095 509.746 L
160.393 509.764 L
160.69 508.868 L
160.988 507.06 L
161.285 504.349 L
161.583 500.744 L
161.88 496.261 L
162.178 490.916 L
162.475 484.73 L
162.772 477.729 L
163.07 469.939 L
163.367 461.392 L
163.665 452.122 L
163.962 442.164 L
164.26 431.558 L
164.557 420.346 L
164.855 408.572 L
165.152 396.283 L
165.45 383.528 L
165.747 370.355 L
166.045 356.819 L
166.342 342.971 L
166.64 328.867 L
166.938 314.562 L
167.235 300.113 L
167.533 285.576 L
167.83 271.01 L
168.128 256.471 L
168.425 242.017 L
168.723 227.705 L
169.02 213.592 L
169.318 199.733 L
169.615 186.183 L
169.913 172.995 L
170.21 160.221 L
170.508 147.912 L
170.805 136.117 L
171.102 124.882 L
171.4 114.251 L
171.697 104.266 L
171.995 94.967 L
172.292 86.39 L
172.59 78.569 L
172.887 71.536 L
S
GR
GS
[0.75 0 0 0.75 0 0] CT
0 0.447 0.741 RC
2 LJ
N
172.887 71.536 M
173.185 65.317 L
173.482 59.938 L
173.78 55.419 L
174.077 51.779 L
174.375 49.031 L
174.673 47.187 L
174.97 46.254 L
175.268 46.236 L
175.565 47.132 L
175.863 48.94 L
176.16 51.651 L
176.458 55.256 L
176.755 59.739 L
177.053 65.084 L
177.35 71.27 L
177.648 78.271 L
177.945 86.061 L
178.243 94.608 L
178.54 103.878 L
178.837 113.836 L
179.135 124.442 L
179.432 135.654 L
179.73 147.428 L
180.027 159.717 L
180.325 172.472 L
180.622 185.645 L
180.92 199.181 L
181.217 213.029 L
181.515 227.133 L
181.813 241.438 L
182.11 255.887 L
182.408 270.424 L
182.705 284.99 L
183.003 299.529 L
183.3 313.983 L
183.598 328.295 L
183.895 342.408 L
184.193 356.267 L
184.49 369.818 L
184.788 383.005 L
185.085 395.779 L
185.383 408.088 L
185.68 419.883 L
185.978 431.118 L
186.275 441.749 L
186.573 451.734 L
186.87 461.033 L
187.168 469.61 L
187.465 477.431 L
S
GR
GS
[0.75 0 0 0.75 0 0] CT
0 0.447 0.741 RC
2 LJ
N
187.465 477.431 M
187.762 484.464 L
188.06 490.683 L
188.357 496.062 L
188.655 500.581 L
188.952 504.221 L
189.25 506.969 L
189.548 508.813 L
189.845 509.746 L
190.143 509.764 L
190.44 508.868 L
190.738 507.06 L
191.035 504.349 L
191.333 500.744 L
191.63 496.261 L
191.927 490.916 L
192.225 484.73 L
192.522 477.729 L
192.82 469.939 L
193.117 461.392 L
193.415 452.122 L
193.712 442.164 L
194.01 431.558 L
194.307 420.346 L
194.605 408.572 L
194.902 396.283 L
195.2 383.528 L
195.497 370.355 L
195.795 356.819 L
196.092 342.971 L
196.39 328.867 L
196.688 314.562 L
196.985 300.113 L
197.283 285.576 L
197.58 271.01 L
197.878 256.471 L
198.175 242.017 L
198.473 227.705 L
198.77 213.592 L
199.068 199.733 L
199.365 186.183 L
199.663 172.995 L
199.96 160.221 L
200.258 147.912 L
200.555 136.117 L
200.852 124.882 L
201.15 114.251 L
201.447 104.266 L
201.745 94.967 L
202.042 86.39 L
S
GR
GS
[0.75 0 0 0.75 0 0] CT
0 0.447 0.741 RC
2 LJ
N
202.042 86.39 M
202.34 78.569 L
202.637 71.536 L
202.935 65.317 L
203.232 59.938 L
203.53 55.419 L
203.827 51.779 L
204.125 49.031 L
204.423 47.187 L
204.72 46.254 L
205.018 46.236 L
205.315 47.132 L
205.613 48.94 L
205.91 51.651 L
206.208 55.256 L
206.505 59.739 L
206.803 65.084 L
207.1 71.27 L
207.398 78.271 L
207.695 86.061 L
207.993 94.608 L
208.29 103.878 L
208.588 113.836 L
208.885 124.442 L
209.183 135.654 L
209.48 147.428 L
209.777 159.717 L
210.075 172.472 L
210.372 185.645 L
210.67 199.181 L
210.967 213.029 L
211.265 227.133 L
211.563 241.438 L
211.86 255.887 L
212.158 270.424 L
212.455 284.99 L
212.753 299.529 L
213.05 313.983 L
213.348 328.295 L
213.645 342.408 L
213.942 356.267 L
214.24 369.818 L
214.537 383.005 L
214.835 395.779 L
215.132 408.088 L
215.43 419.883 L
215.727 431.118 L
216.025 441.749 L
216.322 451.734 L
216.62 461.033 L
S
GR
GS
[0.75 0 0 0.75 0 0] CT
0 0.447 0.741 RC
2 LJ
N
216.62 461.033 M
216.917 469.61 L
217.215 477.431 L
217.512 484.464 L
217.81 490.683 L
218.107 496.062 L
218.405 500.581 L
218.702 504.221 L
219 506.969 L
219.298 508.813 L
219.595 509.746 L
219.893 509.764 L
220.19 508.868 L
220.488 507.06 L
220.785 504.349 L
221.083 500.744 L
221.38 496.261 L
221.678 490.916 L
221.975 484.73 L
222.273 477.729 L
222.57 469.939 L
222.867 461.392 L
223.165 452.122 L
223.462 442.164 L
223.76 431.558 L
224.057 420.346 L
224.355 408.572 L
224.652 396.283 L
224.95 383.528 L
225.247 370.355 L
225.545 356.819 L
225.842 342.971 L
226.14 328.867 L
226.438 314.562 L
226.735 300.113 L
227.033 285.576 L
227.33 271.01 L
227.628 256.471 L
227.925 242.017 L
228.223 227.705 L
228.52 213.592 L
228.818 199.733 L
229.115 186.183 L
229.413 172.995 L
229.71 160.221 L
230.008 147.912 L
230.305 136.117 L
230.603 124.882 L
230.9 114.251 L
231.198 104.266 L
S
GR
GS
[0.75 0 0 0.75 0 0] CT
0 0.447 0.741 RC
2 LJ
N
231.198 104.266 M
231.495 94.967 L
231.792 86.39 L
232.09 78.569 L
232.387 71.536 L
232.685 65.317 L
232.982 59.938 L
233.28 55.419 L
233.577 51.779 L
233.875 49.031 L
234.173 47.187 L
234.47 46.254 L
234.768 46.236 L
235.065 47.132 L
235.363 48.94 L
235.66 51.651 L
235.957 55.256 L
236.255 59.739 L
236.552 65.084 L
236.85 71.27 L
237.147 78.271 L
237.445 86.061 L
237.742 94.608 L
238.04 103.878 L
238.337 113.836 L
238.635 124.442 L
238.932 135.654 L
239.23 147.428 L
239.527 159.717 L
239.825 172.472 L
240.122 185.645 L
240.42 199.181 L
240.717 213.029 L
241.015 227.133 L
241.313 241.438 L
241.61 255.887 L
241.908 270.424 L
242.205 284.99 L
242.503 299.529 L
242.8 313.983 L
243.098 328.295 L
243.395 342.408 L
243.693 356.267 L
243.99 369.818 L
244.288 383.005 L
244.585 395.779 L
244.882 408.088 L
245.18 419.883 L
245.477 431.118 L
245.775 441.749 L
S
GR
GS
[0.75 0 0 0.75 0 0] CT
0 0.447 0.741 RC
2 LJ
N
245.775 441.749 M
246.072 451.734 L
246.37 461.033 L
246.667 469.61 L
246.965 477.431 L
247.262 484.464 L
247.56 490.683 L
247.857 496.062 L
248.155 500.581 L
248.452 504.221 L
248.75 506.969 L
249.048 508.813 L
249.345 509.746 L
249.643 509.764 L
249.94 508.868 L
250.238 507.06 L
250.535 504.349 L
250.833 500.744 L
251.13 496.261 L
251.428 490.916 L
251.725 484.73 L
252.022 477.729 L
252.32 469.939 L
252.618 461.392 L
252.915 452.122 L
253.212 442.164 L
253.51 431.558 L
253.808 420.346 L
254.105 408.572 L
254.402 396.283 L
254.7 383.528 L
254.998 370.355 L
255.295 356.819 L
255.592 342.971 L
255.89 328.867 L
256.188 314.562 L
256.485 300.113 L
256.783 285.576 L
257.08 271.01 L
257.378 256.471 L
257.675 242.017 L
257.973 227.705 L
258.27 213.592 L
258.568 199.733 L
258.865 186.183 L
259.163 172.995 L
259.46 160.221 L
259.758 147.912 L
260.055 136.117 L
260.352 124.882 L
S
GR
GS
[0.75 0 0 0.75 0 0] CT
0 0.447 0.741 RC
2 LJ
N
260.352 124.882 M
260.65 114.251 L
260.948 104.266 L
261.245 94.967 L
261.542 86.39 L
261.84 78.569 L
262.138 71.536 L
262.435 65.317 L
262.732 59.938 L
263.03 55.419 L
263.328 51.779 L
263.625 49.031 L
263.922 47.187 L
264.22 46.254 L
264.517 46.236 L
264.815 47.132 L
265.112 48.94 L
265.41 51.651 L
265.707 55.256 L
266.005 59.739 L
266.302 65.084 L
266.6 71.27 L
266.897 78.271 L
267.195 86.061 L
267.492 94.608 L
267.79 103.878 L
268.087 113.836 L
268.385 124.442 L
268.682 135.654 L
268.98 147.428 L
269.277 159.717 L
269.575 172.472 L
269.872 185.645 L
270.17 199.181 L
270.467 213.029 L
270.765 227.133 L
271.063 241.438 L
271.36 255.887 L
271.658 270.424 L
271.955 284.99 L
272.253 299.529 L
272.55 313.983 L
272.848 328.295 L
273.145 342.408 L
273.443 356.267 L
273.74 369.818 L
274.038 383.005 L
274.335 395.779 L
274.633 408.088 L
274.93 419.883 L
S
GR
GS
[0.75 0 0 0.75 0 0] CT
0 0.447 0.741 RC
2 LJ
N
274.93 419.883 M
275.228 431.118 L
275.525 441.749 L
275.823 451.734 L
276.12 461.033 L
276.418 469.61 L
276.715 477.431 L
277.013 484.464 L
277.31 490.683 L
277.608 496.062 L
277.905 500.581 L
278.202 504.221 L
278.5 506.969 L
278.798 508.813 L
279.095 509.746 L
279.392 509.764 L
279.69 508.868 L
279.988 507.06 L
280.285 504.349 L
280.582 500.744 L
280.88 496.261 L
281.178 490.916 L
281.475 484.73 L
281.772 477.729 L
282.07 469.939 L
282.367 461.392 L
282.665 452.122 L
282.962 442.164 L
283.26 431.558 L
283.557 420.346 L
283.855 408.572 L
284.152 396.283 L
284.45 383.528 L
284.747 370.355 L
285.045 356.819 L
285.342 342.971 L
285.64 328.867 L
285.938 314.562 L
286.235 300.113 L
286.533 285.576 L
286.83 271.01 L
287.128 256.471 L
287.425 242.017 L
287.723 227.705 L
288.02 213.592 L
288.318 199.733 L
288.615 186.183 L
288.913 172.995 L
289.21 160.221 L
289.508 147.912 L
S
GR
GS
[0.75 0 0 0.75 0 0] CT
0 0.447 0.741 RC
2 LJ
N
289.508 147.912 M
289.805 136.117 L
290.103 124.882 L
290.4 114.251 L
290.697 104.266 L
290.995 94.967 L
291.293 86.39 L
291.59 78.569 L
291.887 71.536 L
292.185 65.317 L
292.483 59.938 L
292.78 55.419 L
293.077 51.779 L
293.375 49.031 L
293.673 47.187 L
293.97 46.254 L
294.267 46.236 L
294.565 47.132 L
294.862 48.94 L
295.16 51.651 L
295.457 55.256 L
295.755 59.739 L
296.052 65.084 L
296.35 71.27 L
296.647 78.271 L
296.945 86.061 L
297.242 94.608 L
297.54 103.878 L
297.837 113.836 L
298.135 124.442 L
298.432 135.654 L
298.73 147.428 L
299.027 159.717 L
299.325 172.472 L
299.622 185.645 L
299.92 199.181 L
300.217 213.029 L
300.515 227.133 L
300.813 241.438 L
301.11 255.887 L
301.408 270.424 L
301.705 284.99 L
302.003 299.529 L
302.3 313.983 L
302.598 328.295 L
302.895 342.408 L
303.193 356.267 L
303.49 369.818 L
303.788 383.005 L
304.085 395.779 L
S
GR
GS
[0.75 0 0 0.75 0 0] CT
0 0.447 0.741 RC
2 LJ
N
304.085 395.779 M
304.383 408.088 L
304.68 419.883 L
304.978 431.118 L
305.275 441.749 L
305.573 451.734 L
305.87 461.033 L
306.168 469.61 L
306.465 477.431 L
306.763 484.464 L
307.06 490.683 L
307.358 496.062 L
307.655 500.581 L
307.953 504.221 L
308.25 506.969 L
308.547 508.813 L
308.845 509.746 L
309.143 509.764 L
309.44 508.868 L
309.737 507.06 L
310.035 504.349 L
310.333 500.744 L
310.63 496.261 L
310.927 490.916 L
311.225 484.73 L
311.523 477.729 L
311.82 469.939 L
312.117 461.392 L
312.415 452.122 L
312.712 442.164 L
313.01 431.558 L
313.307 420.346 L
313.605 408.572 L
313.902 396.283 L
314.2 383.528 L
314.497 370.355 L
314.795 356.819 L
315.092 342.971 L
315.39 328.867 L
315.688 314.562 L
315.985 300.113 L
316.283 285.576 L
316.58 271.01 L
316.878 256.471 L
317.175 242.017 L
317.473 227.705 L
317.77 213.592 L
318.068 199.733 L
318.365 186.183 L
318.663 172.995 L
S
GR
GS
[0.75 0 0 0.75 0 0] CT
0 0.447 0.741 RC
2 LJ
N
318.663 172.995 M
318.96 160.221 L
319.258 147.912 L
319.555 136.117 L
319.853 124.882 L
320.15 114.251 L
320.448 104.266 L
320.745 94.967 L
321.042 86.39 L
321.34 78.569 L
321.638 71.536 L
321.935 65.317 L
322.232 59.938 L
322.53 55.419 L
322.828 51.779 L
323.125 49.031 L
323.422 47.187 L
323.72 46.254 L
324.018 46.236 L
324.315 47.132 L
324.612 48.94 L
324.91 51.651 L
325.208 55.256 L
325.505 59.739 L
325.802 65.084 L
326.1 71.27 L
326.397 78.271 L
326.695 86.061 L
326.992 94.608 L
327.29 103.878 L
327.587 113.836 L
327.885 124.442 L
328.182 135.654 L
328.48 147.428 L
328.777 159.717 L
329.075 172.472 L
329.372 185.645 L
329.67 199.181 L
329.967 213.029 L
330.265 227.133 L
330.563 241.438 L
330.86 255.887 L
331.158 270.424 L
331.455 284.99 L
331.753 299.529 L
332.05 313.983 L
332.348 328.295 L
332.645 342.408 L
332.943 356.267 L
333.24 369.818 L
S
GR
GS
[0.75 0 0 0.75 0 0] CT
0 0.447 0.741 RC
2 LJ
N
333.24 369.818 M
333.538 383.005 L
333.835 395.779 L
334.133 408.088 L
334.43 419.883 L
334.727 431.118 L
335.025 441.749 L
335.323 451.734 L
335.62 461.033 L
335.917 469.61 L
336.215 477.431 L
336.513 484.464 L
336.81 490.683 L
337.107 496.062 L
337.405 500.581 L
337.703 504.221 L
338 506.969 L
338.297 508.813 L
338.595 509.746 L
338.892 509.764 L
339.19 508.868 L
339.487 507.06 L
339.785 504.349 L
340.082 500.744 L
340.38 496.261 L
340.677 490.916 L
340.975 484.73 L
341.272 477.729 L
341.57 469.939 L
341.867 461.392 L
342.165 452.122 L
342.462 442.164 L
342.76 431.558 L
343.057 420.346 L
343.355 408.572 L
343.652 396.283 L
343.95 383.528 L
344.247 370.355 L
344.545 356.819 L
344.842 342.971 L
345.14 328.867 L
345.438 314.562 L
345.735 300.113 L
346.033 285.576 L
346.33 271.01 L
346.628 256.471 L
346.925 242.017 L
347.223 227.705 L
347.52 213.592 L
347.818 199.733 L
S
GR
GS
[0.75 0 0 0.75 0 0] CT
0 0.447 0.741 RC
2 LJ
N
347.818 199.733 M
348.115 186.183 L
348.413 172.995 L
348.71 160.221 L
349.008 147.912 L
349.305 136.117 L
349.603 124.882 L
349.9 114.251 L
350.198 104.266 L
350.495 94.967 L
350.793 86.39 L
351.09 78.569 L
351.388 71.536 L
351.685 65.317 L
351.983 59.938 L
352.28 55.419 L
352.577 51.779 L
352.875 49.031 L
353.173 47.187 L
353.47 46.254 L
353.767 46.236 L
354.065 47.132 L
354.363 48.94 L
354.66 51.651 L
354.957 55.256 L
355.255 59.739 L
355.553 65.084 L
355.85 71.27 L
356.147 78.271 L
356.445 86.061 L
356.742 94.608 L
357.04 103.878 L
357.337 113.836 L
357.635 124.442 L
357.932 135.654 L
358.23 147.428 L
358.527 159.717 L
358.825 172.472 L
359.122 185.645 L
359.42 199.181 L
359.717 213.029 L
360.015 227.133 L
360.313 241.438 L
360.61 255.887 L
360.908 270.424 L
361.205 284.99 L
361.503 299.529 L
361.8 313.983 L
362.098 328.295 L
362.395 342.408 L
S
GR
GS
[0.75 0 0 0.75 0 0] CT
0 0.447 0.741 RC
2 LJ
N
362.395 342.408 M
362.693 356.267 L
362.99 369.818 L
363.288 383.005 L
363.585 395.779 L
363.883 408.088 L
364.18 419.883 L
364.478 431.118 L
364.775 441.749 L
365.072 451.734 L
365.37 461.033 L
365.668 469.61 L
365.965 477.431 L
366.262 484.464 L
366.56 490.683 L
366.858 496.062 L
367.155 500.581 L
367.452 504.221 L
367.75 506.969 L
368.048 508.813 L
368.345 509.746 L
368.642 509.764 L
368.94 508.868 L
369.237 507.06 L
369.535 504.349 L
369.832 500.744 L
370.13 496.261 L
370.427 490.916 L
370.725 484.73 L
371.022 477.729 L
371.32 469.939 L
371.617 461.392 L
371.915 452.122 L
372.212 442.164 L
372.51 431.558 L
372.807 420.346 L
373.105 408.572 L
373.402 396.283 L
373.7 383.528 L
373.997 370.355 L
374.295 356.819 L
374.592 342.971 L
374.89 328.867 L
375.188 314.562 L
375.485 300.113 L
375.783 285.576 L
376.08 271.01 L
376.378 256.471 L
376.675 242.017 L
376.973 227.705 L
S
GR
GS
[0.75 0 0 0.75 0 0] CT
0 0.447 0.741 RC
2 LJ
N
376.973 227.705 M
377.27 213.592 L
377.568 199.733 L
377.865 186.183 L
378.163 172.995 L
378.46 160.221 L
378.758 147.912 L
379.055 136.117 L
379.353 124.882 L
379.65 114.251 L
379.948 104.266 L
380.245 94.967 L
380.543 86.39 L
380.84 78.569 L
381.138 71.536 L
381.435 65.317 L
381.733 59.938 L
382.03 55.419 L
382.328 51.779 L
382.625 49.031 L
382.922 47.187 L
383.22 46.254 L
383.518 46.236 L
383.815 47.132 L
384.112 48.94 L
384.41 51.651 L
384.708 55.256 L
385.005 59.739 L
385.302 65.084 L
385.6 71.27 L
385.898 78.271 L
386.195 86.061 L
386.492 94.608 L
386.79 103.878 L
387.087 113.836 L
387.385 124.442 L
387.682 135.654 L
387.98 147.428 L
388.277 159.717 L
388.575 172.472 L
388.872 185.645 L
389.17 199.181 L
389.467 213.029 L
389.765 227.133 L
390.063 241.438 L
390.36 255.887 L
390.658 270.424 L
390.955 284.99 L
391.253 299.529 L
391.55 313.983 L
S
GR
GS
[0.75 0 0 0.75 0 0] CT
0 0.447 0.741 RC
2 LJ
N
391.55 313.983 M
391.848 328.295 L
392.145 342.408 L
392.443 356.267 L
392.74 369.818 L
393.038 383.005 L
393.335 395.779 L
393.633 408.088 L
393.93 419.883 L
394.228 431.118 L
394.525 441.749 L
394.823 451.734 L
395.12 461.033 L
395.417 469.61 L
395.715 477.431 L
396.013 484.464 L
396.31 490.683 L
396.607 496.062 L
396.905 500.581 L
397.203 504.221 L
397.5 506.969 L
397.798 508.813 L
398.095 509.746 L
398.393 509.764 L
398.69 508.868 L
398.987 507.06 L
399.285 504.349 L
399.582 500.744 L
399.88 496.261 L
400.177 490.916 L
400.475 484.73 L
400.773 477.729 L
401.07 469.939 L
401.367 461.392 L
401.665 452.122 L
401.962 442.164 L
402.26 431.558 L
402.557 420.346 L
402.855 408.572 L
403.153 396.283 L
403.45 383.528 L
403.747 370.355 L
404.045 356.819 L
404.342 342.971 L
404.64 328.867 L
404.938 314.562 L
405.235 300.113 L
405.532 285.576 L
405.83 271.01 L
406.128 256.471 L
S
GR
GS
[0.75 0 0 0.75 0 0] CT
0 0.447 0.741 RC
2 LJ
N
406.128 256.471 M
406.425 242.017 L
406.723 227.705 L
407.02 213.592 L
407.318 199.733 L
407.615 186.183 L
407.912 172.995 L
408.21 160.221 L
408.507 147.912 L
408.805 136.117 L
409.103 124.882 L
409.4 114.251 L
409.698 104.266 L
409.995 94.967 L
410.292 86.39 L
410.59 78.569 L
410.887 71.536 L
411.185 65.317 L
411.483 59.938 L
411.78 55.419 L
412.078 51.779 L
412.375 49.031 L
412.672 47.187 L
412.97 46.254 L
413.267 46.236 L
413.565 47.132 L
413.862 48.94 L
414.16 51.651 L
414.458 55.256 L
414.755 59.739 L
415.052 65.084 L
415.35 71.27 L
415.647 78.271 L
415.945 86.061 L
416.242 94.608 L
416.54 103.878 L
416.838 113.836 L
417.135 124.442 L
417.432 135.654 L
417.73 147.428 L
418.027 159.717 L
418.325 172.472 L
418.622 185.645 L
418.92 199.181 L
419.217 213.029 L
419.515 227.133 L
419.813 241.438 L
420.11 255.887 L
420.408 270.424 L
420.705 284.99 L
S
GR
GS
[0.75 0 0 0.75 0 0] CT
0 0.447 0.741 RC
2 LJ
N
420.705 284.99 M
421.003 299.529 L
421.3 313.983 L
421.598 328.295 L
421.895 342.408 L
422.192 356.267 L
422.49 369.818 L
422.788 383.005 L
423.085 395.779 L
423.383 408.088 L
423.68 419.883 L
423.978 431.118 L
424.275 441.749 L
424.572 451.734 L
424.87 461.033 L
425.168 469.61 L
425.465 477.431 L
425.763 484.464 L
426.06 490.683 L
426.358 496.062 L
426.655 500.581 L
426.952 504.221 L
427.25 506.969 L
427.547 508.813 L
427.845 509.746 L
428.143 509.764 L
428.44 508.868 L
428.738 507.06 L
429.035 504.349 L
429.332 500.744 L
429.63 496.261 L
429.927 490.916 L
430.225 484.73 L
430.522 477.729 L
430.82 469.939 L
431.118 461.392 L
431.415 452.122 L
431.712 442.164 L
432.01 431.558 L
432.307 420.346 L
432.605 408.572 L
432.902 396.283 L
433.2 383.528 L
433.498 370.355 L
433.795 356.819 L
434.092 342.971 L
434.39 328.867 L
434.688 314.562 L
434.985 300.113 L
435.283 285.576 L
S
GR
GS
[0.75 0 0 0.75 0 0] CT
0 0.447 0.741 RC
2 LJ
N
435.283 285.576 M
435.58 271.01 L
435.877 256.471 L
436.175 242.017 L
436.473 227.705 L
436.77 213.592 L
437.068 199.733 L
437.365 186.183 L
437.663 172.995 L
437.96 160.221 L
438.257 147.912 L
438.555 136.117 L
438.853 124.882 L
439.15 114.251 L
439.448 104.266 L
439.745 94.967 L
440.043 86.39 L
440.34 78.569 L
440.637 71.536 L
440.935 65.317 L
441.232 59.938 L
441.53 55.419 L
441.828 51.779 L
442.125 49.031 L
442.423 47.187 L
442.72 46.254 L
443.017 46.236 L
443.315 47.132 L
443.612 48.94 L
443.91 51.651 L
444.207 55.256 L
444.505 59.739 L
444.803 65.084 L
445.1 71.27 L
445.397 78.271 L
445.695 86.061 L
445.992 94.608 L
446.29 103.878 L
446.587 113.836 L
446.885 124.442 L
447.183 135.654 L
447.48 147.428 L
447.777 159.717 L
448.075 172.472 L
448.372 185.645 L
448.67 199.181 L
448.967 213.029 L
449.265 227.133 L
449.563 241.438 L
449.86 255.887 L
S
GR
GS
[0.75 0 0 0.75 0 0] CT
0 0.447 0.741 RC
2 LJ
N
449.86 255.887 M
450.158 270.424 L
450.455 284.99 L
450.753 299.529 L
451.05 313.983 L
451.348 328.295 L
451.645 342.408 L
451.943 356.267 L
452.24 369.818 L
452.537 383.005 L
452.835 395.779 L
453.133 408.088 L
453.43 419.883 L
453.728 431.118 L
454.025 441.749 L
454.323 451.734 L
454.62 461.033 L
454.917 469.61 L
455.215 477.431 L
455.513 484.464 L
455.81 490.683 L
456.108 496.062 L
456.405 500.581 L
456.703 504.221 L
457 506.969 L
457.297 508.813 L
457.595 509.746 L
457.892 509.764 L
458.19 508.868 L
458.488 507.06 L
458.785 504.349 L
459.083 500.744 L
459.38 496.261 L
459.677 490.916 L
459.975 484.73 L
460.272 477.729 L
460.57 469.939 L
460.868 461.392 L
461.165 452.122 L
461.463 442.164 L
461.76 431.558 L
462.057 420.346 L
462.355 408.572 L
462.652 396.283 L
462.95 383.528 L
463.247 370.355 L
463.545 356.819 L
463.843 342.971 L
464.14 328.867 L
464.438 314.562 L
S
GR
GS
[0.75 0 0 0.75 0 0] CT
0 0.447 0.741 RC
2 LJ
N
464.438 314.562 M
464.735 300.113 L
465.033 285.576 L
465.33 271.01 L
465.628 256.471 L
465.925 242.017 L
466.222 227.705 L
466.52 213.592 L
466.818 199.733 L
467.115 186.183 L
467.413 172.995 L
467.71 160.221 L
468.008 147.912 L
468.305 136.117 L
468.602 124.882 L
468.9 114.251 L
469.198 104.266 L
469.495 94.967 L
469.793 86.39 L
470.09 78.569 L
470.388 71.536 L
470.685 65.317 L
470.982 59.938 L
471.28 55.419 L
471.577 51.779 L
471.875 49.031 L
472.173 47.187 L
472.47 46.254 L
472.768 46.236 L
473.065 47.132 L
473.362 48.94 L
473.66 51.651 L
473.957 55.256 L
474.255 59.739 L
474.552 65.084 L
474.85 71.27 L
475.148 78.271 L
475.445 86.061 L
475.742 94.608 L
476.04 103.878 L
476.337 113.836 L
476.635 124.442 L
476.932 135.654 L
477.23 147.428 L
477.528 159.717 L
477.825 172.472 L
478.122 185.645 L
478.42 199.181 L
478.717 213.029 L
479.015 227.133 L
S
GR
GS
[0.75 0 0 0.75 0 0] CT
0 0.447 0.741 RC
2 LJ
N
479.015 227.133 M
479.313 241.438 L
479.61 255.887 L
479.907 270.424 L
480.205 284.99 L
480.503 299.529 L
480.8 313.983 L
481.098 328.295 L
481.395 342.408 L
481.693 356.267 L
481.99 369.818 L
482.287 383.005 L
482.585 395.779 L
482.882 408.088 L
483.18 419.883 L
483.478 431.118 L
483.775 441.749 L
484.073 451.734 L
484.37 461.033 L
484.667 469.61 L
484.965 477.431 L
485.262 484.464 L
485.56 490.683 L
485.858 496.062 L
486.155 500.581 L
486.453 504.221 L
486.75 506.969 L
487.047 508.813 L
487.345 509.746 L
487.642 509.764 L
487.94 508.868 L
488.237 507.06 L
488.535 504.349 L
488.833 500.744 L
489.13 496.261 L
489.427 490.916 L
489.725 484.73 L
490.022 477.729 L
490.32 469.939 L
490.617 461.392 L
490.915 452.122 L
491.213 442.164 L
491.51 431.558 L
491.807 420.346 L
492.105 408.572 L
492.402 396.283 L
492.7 383.528 L
492.997 370.355 L
493.295 356.819 L
493.592 342.971 L
S
GR
GS
[0.75 0 0 0.75 0 0] CT
0 0.447 0.741 RC
2 LJ
N
493.592 342.971 M
493.89 328.867 L
494.188 314.562 L
494.485 300.113 L
494.783 285.576 L
495.08 271.01 L
495.378 256.471 L
495.675 242.017 L
495.973 227.705 L
496.27 213.592 L
496.567 199.733 L
496.865 186.183 L
497.163 172.995 L
497.46 160.221 L
497.758 147.912 L
498.055 136.117 L
498.353 124.882 L
498.65 114.251 L
498.947 104.266 L
499.245 94.967 L
499.543 86.39 L
499.84 78.569 L
500.138 71.536 L
500.435 65.317 L
500.733 59.938 L
501.03 55.419 L
501.327 51.779 L
501.625 49.031 L
501.922 47.187 L
502.22 46.254 L
502.518 46.236 L
502.815 47.132 L
503.113 48.94 L
503.41 51.651 L
503.707 55.256 L
504.005 59.739 L
504.302 65.084 L
504.6 71.27 L
504.897 78.271 L
505.195 86.061 L
505.493 94.608 L
505.79 103.878 L
506.087 113.836 L
506.385 124.442 L
506.682 135.654 L
506.98 147.428 L
507.277 159.717 L
507.575 172.472 L
507.873 185.645 L
508.17 199.181 L
S
GR
GS
[0.75 0 0 0.75 0 0] CT
0 0.447 0.741 RC
2 LJ
N
508.17 199.181 M
508.467 213.029 L
508.765 227.133 L
509.063 241.438 L
509.36 255.887 L
509.658 270.424 L
509.955 284.99 L
510.252 299.529 L
510.55 313.983 L
510.848 328.295 L
511.145 342.408 L
511.443 356.267 L
511.74 369.818 L
512.037 383.005 L
512.335 395.779 L
512.633 408.088 L
512.93 419.883 L
513.228 431.118 L
513.525 441.749 L
513.823 451.734 L
514.12 461.033 L
514.417 469.61 L
514.715 477.431 L
515.013 484.464 L
515.31 490.683 L
515.607 496.062 L
515.905 500.581 L
516.203 504.221 L
516.5 506.969 L
516.797 508.813 L
517.095 509.746 L
517.393 509.764 L
517.69 508.868 L
517.987 507.06 L
518.285 504.349 L
518.582 500.744 L
518.88 496.261 L
519.177 490.916 L
519.475 484.73 L
519.773 477.729 L
520.07 469.939 L
520.367 461.392 L
520.665 452.122 L
520.962 442.164 L
521.26 431.558 L
521.557 420.346 L
521.855 408.572 L
522.153 396.283 L
522.45 383.528 L
522.747 370.355 L
S
GR
GS
[0.75 0 0 0.75 0 0] CT
0 0.447 0.741 RC
2 LJ
N
522.747 370.355 M
523.045 356.819 L
523.342 342.971 L
523.64 328.867 L
523.938 314.562 L
524.235 300.113 L
524.533 285.576 L
524.83 271.01 L
525.128 256.471 L
525.425 242.017 L
525.722 227.705 L
526.02 213.592 L
526.318 199.733 L
526.615 186.183 L
526.912 172.995 L
527.21 160.221 L
527.508 147.912 L
527.805 136.117 L
528.102 124.882 L
528.4 114.251 L
528.698 104.266 L
528.995 94.967 L
529.292 86.39 L
529.59 78.569 L
529.888 71.536 L
530.185 65.317 L
530.482 59.938 L
530.78 55.419 L
531.078 51.779 L
531.375 49.031 L
531.672 47.187 L
531.97 46.254 L
532.267 46.236 L
532.565 47.132 L
532.862 48.94 L
533.16 51.651 L
533.458 55.256 L
533.755 59.739 L
534.052 65.084 L
534.35 71.27 L
534.647 78.271 L
534.945 86.061 L
535.242 94.608 L
535.54 103.878 L
535.838 113.836 L
536.135 124.442 L
536.432 135.654 L
536.73 147.428 L
537.027 159.717 L
537.325 172.472 L
S
GR
GS
[0.75 0 0 0.75 0 0] CT
0 0.447 0.741 RC
2 LJ
N
537.325 172.472 M
537.622 185.645 L
537.92 199.181 L
538.218 213.029 L
538.515 227.133 L
538.813 241.438 L
539.11 255.887 L
539.407 270.424 L
539.705 284.99 L
540.003 299.529 L
540.3 313.983 L
540.597 328.295 L
540.895 342.408 L
541.193 356.267 L
541.49 369.818 L
541.787 383.005 L
542.085 395.779 L
542.383 408.088 L
542.68 419.883 L
542.977 431.118 L
543.275 441.749 L
543.573 451.734 L
543.87 461.033 L
544.167 469.61 L
544.465 477.431 L
544.763 484.464 L
545.06 490.683 L
545.357 496.062 L
545.655 500.581 L
545.953 504.221 L
546.25 506.969 L
546.547 508.813 L
546.845 509.746 L
547.143 509.764 L
547.44 508.868 L
547.737 507.06 L
548.035 504.349 L
548.333 500.744 L
548.63 496.261 L
548.927 490.916 L
549.225 484.73 L
549.523 477.729 L
549.82 469.939 L
550.117 461.392 L
550.415 452.122 L
550.713 442.164 L
551.01 431.558 L
551.307 420.346 L
551.605 408.572 L
551.903 396.283 L
S
GR
GS
[0.75 0 0 0.75 0 0] CT
0 0.447 0.741 RC
2 LJ
N
551.903 396.283 M
552.2 383.528 L
552.497 370.355 L
552.795 356.819 L
553.093 342.971 L
553.39 328.867 L
553.688 314.562 L
553.985 300.113 L
554.282 285.576 L
554.58 271.01 L
554.878 256.471 L
555.175 242.017 L
555.473 227.705 L
555.77 213.592 L
556.068 199.733 L
556.365 186.183 L
556.662 172.995 L
556.96 160.221 L
557.258 147.912 L
557.555 136.117 L
557.853 124.882 L
558.15 114.251 L
558.448 104.266 L
558.745 94.967 L
559.042 86.39 L
559.34 78.569 L
559.638 71.536 L
559.935 65.317 L
560.233 59.938 L
560.53 55.419 L
560.828 51.779 L
561.125 49.031 L
561.422 47.187 L
561.72 46.254 L
562.018 46.236 L
562.315 47.132 L
562.612 48.94 L
562.91 51.651 L
563.208 55.256 L
563.505 59.739 L
563.802 65.084 L
564.1 71.27 L
564.398 78.271 L
564.695 86.061 L
564.992 94.608 L
565.29 103.878 L
565.588 113.836 L
565.885 124.442 L
566.182 135.654 L
566.48 147.428 L
S
GR
GS
[0.75 0 0 0.75 0 0] CT
0 0.447 0.741 RC
2 LJ
N
566.48 147.428 M
566.778 159.717 L
567.075 172.472 L
567.372 185.645 L
567.67 199.181 L
567.967 213.029 L
568.265 227.133 L
568.563 241.438 L
568.86 255.887 L
569.158 270.424 L
569.455 284.99 L
569.753 299.529 L
570.05 313.983 L
570.347 328.295 L
570.645 342.408 L
570.943 356.267 L
571.24 369.818 L
571.538 383.005 L
571.835 395.779 L
572.133 408.088 L
572.43 419.883 L
572.727 431.118 L
573.025 441.749 L
573.323 451.734 L
573.62 461.033 L
573.918 469.61 L
574.215 477.431 L
574.513 484.464 L
574.81 490.683 L
575.107 496.062 L
575.405 500.581 L
575.703 504.221 L
576 506.969 L
576.297 508.813 L
576.595 509.746 L
576.893 509.764 L
577.19 508.868 L
577.487 507.06 L
577.785 504.349 L
578.083 500.744 L
578.38 496.261 L
578.677 490.916 L
578.975 484.73 L
579.272 477.729 L
579.57 469.939 L
579.867 461.392 L
580.165 452.122 L
580.463 442.164 L
580.76 431.558 L
581.057 420.346 L
S
GR
GS
[0.75 0 0 0.75 0 0] CT
0 0.447 0.741 RC
2 LJ
N
581.057 420.346 M
581.355 408.572 L
581.652 396.283 L
581.95 383.528 L
582.247 370.355 L
582.545 356.819 L
582.843 342.971 L
583.14 328.867 L
583.438 314.562 L
583.735 300.113 L
584.032 285.576 L
584.33 271.01 L
584.628 256.471 L
584.925 242.017 L
585.223 227.705 L
585.52 213.592 L
585.818 199.733 L
586.115 186.183 L
586.412 172.995 L
586.71 160.221 L
587.008 147.912 L
587.305 136.117 L
587.603 124.882 L
587.9 114.251 L
588.198 104.266 L
588.495 94.967 L
588.792 86.39 L
589.09 78.569 L
589.388 71.536 L
589.685 65.317 L
589.982 59.938 L
590.28 55.419 L
590.578 51.779 L
590.875 49.031 L
591.172 47.187 L
591.47 46.254 L
591.768 46.236 L
592.065 47.132 L
592.362 48.94 L
592.66 51.651 L
592.957 55.256 L
593.255 59.739 L
593.552 65.084 L
593.85 71.27 L
594.148 78.271 L
594.445 86.061 L
594.742 94.608 L
595.04 103.878 L
595.337 113.836 L
595.635 124.442 L
S
GR
GS
[0.75 0 0 0.75 0 0] CT
0 0.447 0.741 RC
2 LJ
N
595.635 124.442 M
595.932 135.654 L
596.23 147.428 L
596.528 159.717 L
596.825 172.472 L
597.122 185.645 L
597.42 199.181 L
597.717 213.029 L
598.015 227.133 L
598.313 241.438 L
598.61 255.887 L
598.908 270.424 L
599.205 284.99 L
599.503 299.529 L
599.8 313.983 L
600.097 328.295 L
600.395 342.408 L
600.693 356.267 L
600.99 369.818 L
601.287 383.005 L
601.585 395.779 L
601.883 408.088 L
602.18 419.883 L
602.477 431.118 L
602.775 441.749 L
603.073 451.734 L
603.37 461.033 L
603.667 469.61 L
603.965 477.431 L
604.263 484.464 L
604.56 490.683 L
604.857 496.062 L
605.155 500.581 L
605.453 504.221 L
605.75 506.969 L
606.047 508.813 L
606.345 509.746 L
606.642 509.764 L
606.94 508.868 L
607.237 507.06 L
607.535 504.349 L
607.833 500.744 L
608.13 496.261 L
608.427 490.916 L
608.725 484.73 L
609.022 477.729 L
609.32 469.939 L
609.617 461.392 L
609.915 452.122 L
610.213 442.164 L
S
GR
GS
[0.75 0 0 0.75 0 0] CT
0 0.447 0.741 RC
2 LJ
N
610.213 442.164 M
610.51 431.558 L
610.807 420.346 L
611.105 408.572 L
611.402 396.283 L
611.7 383.528 L
611.997 370.355 L
612.295 356.819 L
612.593 342.971 L
612.89 328.867 L
613.188 314.562 L
613.485 300.113 L
613.782 285.576 L
614.08 271.01 L
614.378 256.471 L
614.675 242.017 L
614.972 227.705 L
615.27 213.592 L
615.568 199.733 L
615.865 186.183 L
616.162 172.995 L
616.46 160.221 L
616.758 147.912 L
617.055 136.117 L
617.352 124.882 L
617.65 114.251 L
617.948 104.266 L
618.245 94.967 L
618.542 86.39 L
618.84 78.569 L
619.138 71.536 L
619.435 65.317 L
619.732 59.938 L
620.03 55.419 L
620.328 51.779 L
620.625 49.031 L
620.922 47.187 L
621.22 46.254 L
621.518 46.236 L
621.815 47.132 L
622.112 48.94 L
622.41 51.651 L
622.708 55.256 L
623.005 59.739 L
623.302 65.084 L
623.6 71.27 L
623.898 78.271 L
624.195 86.061 L
624.492 94.608 L
624.79 103.878 L
S
GR
GS
[0.75 0 0 0.75 0 0] CT
0 0.447 0.741 RC
2 LJ
N
624.79 103.878 M
625.088 113.836 L
625.385 124.442 L
625.682 135.654 L
625.98 147.428 L
626.278 159.717 L
626.575 172.472 L
626.872 185.645 L
627.17 199.181 L
627.468 213.029 L
627.765 227.133 L
628.063 241.438 L
628.36 255.887 L
628.657 270.424 L
628.955 284.99 L
629.253 299.529 L
629.55 313.983 L
629.848 328.295 L
630.145 342.408 L
630.443 356.267 L
630.74 369.818 L
631.037 383.005 L
631.335 395.779 L
631.633 408.088 L
631.93 419.883 L
632.228 431.118 L
632.525 441.749 L
632.823 451.734 L
633.12 461.033 L
633.417 469.61 L
633.715 477.431 L
634.013 484.464 L
634.31 490.683 L
634.608 496.062 L
634.905 500.581 L
635.203 504.221 L
635.5 506.969 L
635.797 508.813 L
636.095 509.746 L
636.393 509.764 L
636.69 508.868 L
636.987 507.06 L
637.285 504.349 L
637.583 500.744 L
637.88 496.261 L
638.177 490.916 L
638.475 484.73 L
638.773 477.729 L
639.07 469.939 L
639.367 461.392 L
S
GR
GS
[0.75 0 0 0.75 0 0] CT
0 0.447 0.741 RC
2 LJ
N
639.367 461.392 M
639.665 452.122 L
639.963 442.164 L
640.26 431.558 L
640.557 420.346 L
640.855 408.572 L
641.153 396.283 L
641.45 383.528 L
641.747 370.355 L
642.045 356.819 L
642.342 342.971 L
642.64 328.867 L
642.938 314.562 L
643.235 300.113 L
643.533 285.576 L
643.83 271.01 L
644.128 256.471 L
644.425 242.017 L
644.722 227.705 L
645.02 213.592 L
645.318 199.733 L
645.615 186.183 L
645.913 172.995 L
646.21 160.221 L
646.508 147.912 L
646.805 136.117 L
647.102 124.882 L
647.4 114.251 L
647.698 104.266 L
647.995 94.967 L
648.293 86.39 L
648.59 78.569 L
648.888 71.536 L
649.185 65.317 L
649.482 59.938 L
649.78 55.419 L
650.078 51.779 L
650.375 49.031 L
650.672 47.187 L
650.97 46.254 L
651.268 46.236 L
651.565 47.132 L
651.862 48.94 L
652.16 51.651 L
652.458 55.256 L
652.755 59.739 L
653.052 65.084 L
653.35 71.27 L
653.647 78.271 L
653.945 86.061 L
S
GR
GS
[0.75 0 0 0.75 0 0] CT
0 0.447 0.741 RC
2 LJ
N
653.945 86.061 M
654.242 94.608 L
654.54 103.878 L
654.838 113.836 L
655.135 124.442 L
655.432 135.654 L
655.73 147.428 L
656.027 159.717 L
656.325 172.472 L
656.622 185.645 L
656.92 199.181 L
657.218 213.029 L
657.515 227.133 L
657.813 241.438 L
658.11 255.887 L
658.407 270.424 L
658.705 284.99 L
659.003 299.529 L
659.3 313.983 L
659.598 328.295 L
659.895 342.408 L
660.193 356.267 L
660.49 369.818 L
660.787 383.005 L
661.085 395.779 L
661.383 408.088 L
661.68 419.883 L
661.978 431.118 L
662.275 441.749 L
662.573 451.734 L
662.87 461.033 L
663.167 469.61 L
663.465 477.431 L
663.763 484.464 L
664.06 490.683 L
664.357 496.062 L
664.655 500.581 L
664.953 504.221 L
665.25 506.969 L
665.547 508.813 L
665.845 509.746 L
666.143 509.764 L
666.44 508.868 L
666.737 507.06 L
667.035 504.349 L
667.332 500.744 L
667.63 496.261 L
667.927 490.916 L
668.225 484.73 L
668.523 477.729 L
S
GR
GS
[0.75 0 0 0.75 0 0] CT
0 0.447 0.741 RC
2 LJ
N
668.523 477.729 M
668.82 469.939 L
669.117 461.392 L
669.415 452.122 L
669.712 442.164 L
670.01 431.558 L
670.307 420.346 L
670.605 408.572 L
670.903 396.283 L
671.2 383.528 L
671.497 370.355 L
671.795 356.819 L
672.092 342.971 L
672.39 328.867 L
672.688 314.562 L
672.985 300.113 L
673.283 285.576 L
673.58 271.01 L
673.878 256.471 L
674.175 242.017 L
674.472 227.705 L
674.77 213.592 L
675.068 199.733 L
675.365 186.183 L
675.662 172.995 L
675.96 160.221 L
676.258 147.912 L
676.555 136.117 L
676.852 124.882 L
677.15 114.251 L
677.448 104.266 L
677.745 94.967 L
678.042 86.39 L
678.34 78.569 L
678.638 71.536 L
678.935 65.317 L
679.232 59.938 L
679.53 55.419 L
679.828 51.779 L
680.125 49.031 L
680.422 47.187 L
680.72 46.254 L
681.017 46.236 L
681.315 47.132 L
681.612 48.94 L
681.91 51.651 L
682.208 55.256 L
682.505 59.739 L
682.802 65.084 L
683.1 71.27 L
S
GR
GS
[0.75 0 0 0.75 0 0] CT
0 0.447 0.741 RC
2 LJ
N
683.1 71.27 M
683.397 78.271 L
683.695 86.061 L
683.992 94.608 L
684.29 103.878 L
684.588 113.836 L
684.885 124.442 L
685.182 135.654 L
685.48 147.428 L
685.777 159.717 L
686.075 172.472 L
686.372 185.645 L
686.67 199.181 L
686.968 213.029 L
687.265 227.133 L
687.563 241.438 L
687.86 255.887 L
688.157 270.424 L
688.455 284.99 L
688.753 299.529 L
689.05 313.983 L
689.347 328.295 L
689.645 342.408 L
689.943 356.267 L
690.24 369.818 L
690.537 383.005 L
690.835 395.779 L
691.133 408.088 L
691.43 419.883 L
691.727 431.118 L
692.025 441.749 L
692.323 451.734 L
692.62 461.033 L
692.917 469.61 L
693.215 477.431 L
693.513 484.464 L
693.81 490.683 L
694.107 496.062 L
694.405 500.581 L
694.703 504.221 L
695 506.969 L
S
GR
%%Trailer
%%BoundingBox: 25 14 523 405
%%Pages: 1
%%EOF
